What the Package Does (One Line, Title Case) • tsrecipes
…
Each entry of the set may belong to a class or label. The entries may also be multivariate time series.

In general, it’s not feasible or recommended to use the raw time series values as classification or clustering features.

Why do we need time series preprocessing in the first place? You could each entry of the time series a feature:

#> # A tibble: 965 x 6
#>    class           `1`     `2`    `3`    `4`    `5`
#>    <fct>         <dbl>   <dbl>  <dbl>  <dbl>  <dbl>
#>  1 no_increase -4.15   -0.770   2.01  -2.69   2.04 
#>  2 no_increase -0.749   0.943  -0.187  0.375 -0.933
#>  3 no_increase  4.93    1.06    0.774 -0.264  0.301
#>  4 no_increase  1.15   -0.0380  0.975 -0.615 -0.189
#>  5 no_increase  3.08   -0.660   0.166  1.69  -2.19 
#>  6 no_increase  1.59   -0.419  -0.511  1.29  -0.247
#>  7 no_increase -0.824   2.84   -1.03  -0.683  0.209
#>  8 no_increase  0.0330  0.0659 -1.12   1.97  -0.588
#>  9 no_increase -1.24   -1.30    3.84   1.01   0.363
#> 10 no_increase  0.252   3.30   -8.63  -1.53   1.71 
#> # … with 955 more rows
…
