tune • tsrecipes
…
cv_results <- pipeline %>%
  tune_grid(
    resamples = vfold_cv(prices),
    grid = coef_grid
  )

cv_results %>%
  collect_metrics() %>%
  filter(.metric == "accuracy") %>%
  arrange(desc(mean))
#> # A tibble: 120 x 8
#>     penalty     k .metric  .estimator  mean     n std_err .config        
#>       <dbl> <dbl> <chr>    <chr>      <dbl> <int>   <dbl> <fct>          
#>  1 0.0001      16 accuracy binary     0.696    10  0.0153 Recipe3_Model01
#>  2 0.000127    16 accuracy binary     0.696    10  0.0153 Recipe3_Model02
#>  3 0.000161    16 accuracy binary     0.696    10  0.0153 Recipe3_Model03
#>  4 0.000204    16 accuracy binary     0.696    10  0.0153 Recipe3_Model04
#>  5 0.000259    16 accuracy binary     0.696    10  0.0153 Recipe3_Model05
#>  6 0.000329    16 accuracy binary     0.696    10  0.0153 Recipe3_Model06
#>  7 0.000418    16 accuracy binary     0.696    10  0.0153 Recipe3_Model07
#>  8 0.000530    16 accuracy binary     0.696    10  0.0153 Recipe3_Model08
#>  9 0.000672    16 accuracy binary     0.696    10  0.0153 Recipe3_Model09
#> 10 0.000853    16 accuracy binary     0.696    10  0.0153 Recipe3_Model10
#> # … with 110 more rows
…
